%YAML 1.1
%TAG !u! tag:unity3d.com,2011:
--- !u!1045 &1
EditorBuildSettings:
  m_ObjectHideFlags: 0
  serializedVersion: 2
  m_Scenes:
  - enabled: 1
    path: Assets/Game/TKMSCenes/MainMenuUI.unity
    guid: e511453bc77f13245b58a50fa50c94be
  - enabled: 1
    path: Assets/Game/TKMSCenes/Level001.unity
    guid: db05b87886df95849b41e56c24b2c996
  - enabled: 1
    path: Assets/Game/TKMSCenes/Level002.unity
    guid: 3423c323f453e874eadc41e2340852b8
  - enabled: 1
    path: Assets/Game/TKMSCenes/Level003.unity
    guid: 0a0539ae4ebce3545a5875c41627ae61
  - enabled: 1
    path: Assets/Game/TKMSCenes/Level004.unity
    guid: 0ef46f9a76286f042a5a7454e73569fd
  - enabled: 1
    path: Assets/Game/TKMSCenes/Level005.unity
    guid: b5b2c430ca63d5b42b548cd0e2bdb69d
  - enabled: 1
    path: Assets/Game/TKMSCenes/Level006.unity
    guid: 2546e0ca0d7fb6f4a950093b9812446f
  - enabled: 1
    path: Assets/Game/TKMSCenes/Level007.unity
    guid: 440b6f45ae591a94db5a7019fa2f70e4
  - enabled: 1
    path: Assets/Game/TKMSCenes/Level008.unity
    guid: 3cd727fa350c9404b9e67cb5e0582a7c
  - enabled: 1
    path: Assets/Game/TKMSCenes/Level009.unity
    guid: 8a2fa76be96bc7c4e99c5b6bfcc9bf64
  - enabled: 1
    path: Assets/Game/TKMSCenes/Level010.unity
    guid: c008533b3a1e6bd4996ca44a04699910
  - enabled: 1
    path: Assets/Game/TKMSCenes/Level011.unity
    guid: 0af71add07b1bd244a5f8454a3ec9357
  - enabled: 1
    path: Assets/Game/TKMSCenes/Level012.unity
    guid: e921c7491c4dae54eb965df618dcdd69
  - enabled: 1
    path: Assets/Game/TKMSCenes/Level013.unity
    guid: 77b4278bd80d2254a9689d89ae60a8f0
  - enabled: 1
    path: Assets/Game/TKMSCenes/Level014.unity
    guid: cd53b50e256217c47b6ae2f3cc311f94
  - enabled: 1
    path: Assets/Game/TKMSCenes/Level015.unity
    guid: de7636b7982abb946985751f3328378b
  - enabled: 1
    path: Assets/Game/TKMSCenes/Level016.unity
    guid: dfee3535ae2db64489fc0f49258ca23a
  - enabled: 1
    path: Assets/Game/TKMSCenes/Level017.unity
    guid: 34edf61d67176a444a6921e8d6078a72
  - enabled: 1
    path: Assets/Game/TKMSCenes/Level018.unity
    guid: b8b3623f7f2600641970e10c283b1d93
  - enabled: 1
    path: Assets/Game/TKMSCenes/Level019.unity
    guid: 2eeb2aa1f9902b849923e6c3c0615325
  - enabled: 1
    path: Assets/Game/TKMSCenes/Level020.unity
    guid: 2ef4addf406302841aa553879f7c9e79
  - enabled: 1
    path: Assets/Game/TKMSCenes/Level021.unity
    guid: aaab28efdb5008843b87c4667215034d
  - enabled: 1
    path: Assets/Game/TKMSCenes/Level022.unity
    guid: 44020a05288474444adc0ab814affc57
  - enabled: 1
    path: Assets/Game/TKMSCenes/Level023.unity
    guid: 94cc3ddd6465252438d4075e3a59148b
  - enabled: 1
    path: Assets/Game/TKMSCenes/Level024.unity
    guid: d62bde9ec265a104ea6e1b3a7045dc4a
  - enabled: 1
    path: Assets/Game/TKMSCenes/Level025.unity
    guid: 20a3ddc2766c4e34085fecb57c84cbe7
  - enabled: 1
    path: Assets/Game/TKMSCenes/Level026.unity
    guid: dceeced1cb09ebf4b8a835a7a1089dc8
  - enabled: 1
    path: Assets/Game/TKMSCenes/Level027.unity
    guid: 41e74030ec97f9f4fb4f7c58f0444f72
  - enabled: 1
    path: Assets/Game/TKMSCenes/Level028.unity
    guid: 847df7bedbfec8c4cafd7d4975d7b7de
  - enabled: 1
    path: Assets/Game/TKMSCenes/Level029.unity
    guid: 2afd3c0d1a44d294bb9055aefce5c093
  - enabled: 1
    path: Assets/Game/TKMSCenes/Level030.unity
    guid: 0f7358b6864c6544e8654d27ec16003c
  - enabled: 1
    path: Assets/Game/TKMSCenes/Level031.unity
    guid: 333f34a9905db664aa89041507c6db5f
  - enabled: 1
    path: Assets/Game/TKMSCenes/Level032.unity
    guid: 8e52b15cc63c0ee4292b59396db5e779
  - enabled: 1
    path: Assets/Game/TKMSCenes/Level033.unity
    guid: 4af321ef44fba134b8ff6556b92feb3d
  - enabled: 1
    path: Assets/Game/TKMSCenes/Level034.unity
    guid: 0f61dfd5c8ce5464d893c41f40bcd650
  - enabled: 1
    path: Assets/Game/TKMSCenes/Level035.unity
    guid: bda3a749942eef34e9e4516f363e9c3f
  - enabled: 1
    path: Assets/Game/TKMSCenes/Level036.unity
    guid: 754d6f33e8af1af4d9998da4422a9b07
  - enabled: 1
    path: Assets/Game/TKMSCenes/Level037.unity
    guid: 6cc458b344408934a9eb7a44e6e56ce6
  - enabled: 1
    path: Assets/Game/TKMSCenes/Level038.unity
    guid: 1391ecee3f0e757479dbb2865c84e3b2
  - enabled: 1
    path: Assets/Game/TKMSCenes/Level039.unity
    guid: f5b35d0d55bc05d4dac3704e617bd4ed
  - enabled: 1
    path: Assets/Game/TKMSCenes/Level040.unity
    guid: 578e0f50c0123ee49a0190d9e402ef2b
  - enabled: 1
    path: Assets/Game/TKMSCenes/Level041.unity
    guid: 8927cdaa38eb36d429be0f09712985fd
  - enabled: 1
    path: Assets/Game/TKMSCenes/Level042.unity
    guid: 2897ebb741c90dd4a8b6e957d108c7e3
  - enabled: 1
    path: Assets/Game/TKMSCenes/Level043.unity
    guid: 12cf2b37e9db1f445ae8055f209d8e62
  - enabled: 1
    path: Assets/Game/TKMSCenes/Level044.unity
    guid: 30b64767a2fce25409c86876f013c9c1
  - enabled: 1
    path: Assets/Game/TKMSCenes/Level045.unity
    guid: 56573be6c5cddfa4daa3e688f9a3b5f1
  - enabled: 1
    path: Assets/Game/TKMSCenes/Level046.unity
    guid: 92c2961b05a0fab4898b1161fd05ada9
  - enabled: 1
    path: Assets/Game/TKMSCenes/Level047.unity
    guid: 6d10b26692e99bd4d848e1fefb23d1dc
  - enabled: 1
    path: Assets/Game/TKMSCenes/Level048.unity
    guid: 140148829d02e4449933e6216aab1c54
  - enabled: 1
    path: Assets/Game/TKMSCenes/Level049.unity
    guid: 2cbe78cbe9a4f6b498fb2a95abeeba9c
  - enabled: 1
    path: Assets/Game/TKMSCenes/Level050.unity
    guid: 12d640ac6a14e0146b066c7bda0b3160
  - enabled: 1
    path: Assets/Game/TKMSCenes/Level051.unity
    guid: 773b7464a397860419c663d9dd3c1b3b
